[
  {
    "line": 1,
    "elements": [
      {
        "line": 3,
        "name": "User already have access to http://reqres API",
        "description": "",
        "type": "background",
        "keyword": "Background"
      },
      {
        "before": [
          {
            "result": {
              "duration": 71000,
              "status": "passed"
            },
            "match": {
              "location": "Hooks.beforeScenario(Scenario)"
            }
          }
        ],
        "line": 5,
        "name": "User want to see all users",
        "description": "",
        "id": "get-all-users;user-want-to-see-all-users",
        "after": [
          {
            "result": {
              "duration": 15100,
              "status": "passed"
            },
            "match": {
              "location": "Hooks.afterScenario(Scenario)"
            }
          }
        ],
        "type": "scenario",
        "keyword": "Scenario",
        "steps": [
          {
            "output": [
              "METHOD: [ GET (Request) ]",
              "Endpoint: [ https://reqres.in/api/users ]",
              "Headers: [ Accept\u003dapplication/json, application/javascript, text/javascript\nContent-Type\u003dapplication/json; charset\u003dUTF-8 ]",
              "Body - Request: [  ]",
              "------------------------------------",
              "METHOD: [ GET (Response) ]",
              "Status Code: [ 200 ]",
              "Response: [ {\"page\":1,\"per_page\":6,\"total\":12,\"total_pages\":2,\"data\":[{\"id\":1,\"email\":\"george.bluth@reqres.in\",\"first_name\":\"George\",\"last_name\":\"Bluth\",\"avatar\":\"https://s3.amazonaws.com/uifaces/faces/twitter/calebogden/128.jpg\"},{\"id\":2,\"email\":\"janet.weaver@reqres.in\",\"first_name\":\"Janet\",\"last_name\":\"Weaver\",\"avatar\":\"https://s3.amazonaws.com/uifaces/faces/twitter/josephstein/128.jpg\"},{\"id\":3,\"email\":\"emma.wong@reqres.in\",\"first_name\":\"Emma\",\"last_name\":\"Wong\",\"avatar\":\"https://s3.amazonaws.com/uifaces/faces/twitter/olegpogodaev/128.jpg\"},{\"id\":4,\"email\":\"eve.holt@reqres.in\",\"first_name\":\"Eve\",\"last_name\":\"Holt\",\"avatar\":\"https://s3.amazonaws.com/uifaces/faces/twitter/marcoramires/128.jpg\"},{\"id\":5,\"email\":\"charles.morris@reqres.in\",\"first_name\":\"Charles\",\"last_name\":\"Morris\",\"avatar\":\"https://s3.amazonaws.com/uifaces/faces/twitter/stephenmoon/128.jpg\"},{\"id\":6,\"email\":\"tracey.ramos@reqres.in\",\"first_name\":\"Tracey\",\"last_name\":\"Ramos\",\"avatar\":\"https://s3.amazonaws.com/uifaces/faces/twitter/bigmancho/128.jpg\"}],\"ad\":{\"company\":\"StatusCode Weekly\",\"url\":\"http://statuscode.org/\",\"text\":\"A weekly newsletter focusing on software development, infrastructure, the server, performance, and the stack end of things.\"}} ]",
              ""
            ],
            "result": {
              "duration": 2063823000,
              "status": "passed"
            },
            "line": 6,
            "name": "User click on search button",
            "match": {
              "location": "GetAllUsersSteps.userClickOnSearchButton()"
            },
            "keyword": "Given "
          },
          {
            "result": {
              "duration": 3389400,
              "status": "passed"
            },
            "line": 7,
            "name": "User should see status code 200",
            "match": {
              "arguments": [
                {
                  "val": "200",
                  "offset": 28
                }
              ],
              "location": "GetAllUsersSteps.userShouldSeeStatusCode(int)"
            },
            "keyword": "Then "
          }
        ]
      }
    ],
    "name": "Get all users",
    "description": "",
    "id": "get-all-users",
    "keyword": "Feature",
    "uri": "GetAllUsers.feature"
  }
]